[
    {
        "fields": {
            "date_joined": "2013-05-24T23:59:59Z", 
            "email": "gary@touch.asn.au", 
            "first_name": "Gary", 
            "groups": [], 
            "is_active": true, 
            "is_staff": true, 
            "is_superuser": true, 
            "last_login": "2013-05-25T00:00:00Z", 
            "last_name": "Reynolds", 
            "password": "crypt$$azoV33FJ2h3AA", 
            "user_permissions": [], 
            "username": "gary"
        }, 
        "model": "auth.user", 
        "pk": 1
    }
]
